{
  "name": "Unternehmen",
  "fields": [
    {
      "fieldName": "name",
      "fieldType": "String",
      "fieldValidateRules": ["required"]
    },
    {
      "fieldName": "ort",
      "fieldType": "String",
      "fieldValidateRules": ["required"]
    },
    {
      "fieldName": "branche",
      "fieldType": "String"
    },
    {
      "fieldName": "beschreibung",
      "fieldType": "byte[]",
      "fieldTypeBlobContent": "text"
    },
    {
      "fieldName": "postleitzahl",
      "fieldType": "String",
      "fieldValidateRules": ["required"]
    },
    {
      "fieldName": "adresse",
      "fieldType": "String",
      "fieldValidateRules": ["required"]
    },
    {
      "fieldName": "land",
      "fieldType": "String",
      "fieldValidateRules": ["required"]
    }
  ],
  "relationships": [
    {
      "relationshipType": "one-to-many",
      "otherEntityName": "vertrag",
      "otherEntityRelationshipName": "unternehmen",
      "relationshipName": "vertrag"
    }
  ],
  "entityTableName": "unternehmen",
  "dto": "no",
  "pagination": "no",
  "service": "no",
  "jpaMetamodelFiltering": false,
  "fluentMethods": true,
  "readOnly": false,
  "embedded": false,
  "applications": "*",
  "changelogDate": "20211213162049"
}
